[gd_scene load_steps=2 format=2]

[ext_resource path="res://Buttons/Button.tscn" type="PackedScene" id=1]

[node name="BackToMenu" index="0" instance=ExtResource( 1 )]

[node name="Label" parent="." index="0"]
text = "Back"

