[gd_scene load_steps=4 format=2]

[ext_resource path="res://BasicTemplate.gd" type="Script" id=1]
[ext_resource path="res://Theme-and-Reference/Theme/DefaultTheme.tres" type="Theme" id=2]
[ext_resource path="res://Buttons/OptionsButton.tscn" type="PackedScene" id=3]

[node name="Control" type="Control"]
anchor_right = 1.0
anchor_bottom = 1.0
margin_left = -1.04382
margin_right = -1.04382
script = ExtResource( 1 )
newGame_world_scene = "res://MenuScenes/LevelsWorld.tscn"

[node name="Menu" type="VBoxContainer" parent="."]
margin_top = 98.9562
margin_right = 1128.95
margin_bottom = 648.956

[node name="Label" type="Label" parent="Menu"]
margin_top = 86.0
margin_right = 1128.0
margin_bottom = 186.0
size_flags_horizontal = 3
size_flags_vertical = 6
theme = ExtResource( 2 )
text = "MOZZARIA"
align = 1

[node name="CenterRow" type="HBoxContainer" parent="Menu"]
margin_top = 277.0
margin_right = 1128.0
margin_bottom = 550.0
size_flags_vertical = 3

[node name="Buttons" type="VBoxContainer" parent="Menu/CenterRow"]
margin_top = 106.0
margin_right = 1128.0
margin_bottom = 166.0
size_flags_horizontal = 3
size_flags_vertical = 6
custom_constants/separation = 50
alignment = 1

[node name="LevelSelect" parent="Menu/CenterRow/Buttons" instance=ExtResource( 3 )]
margin_right = 1128.0

[connection signal="pressed" from="Menu/CenterRow/Buttons/LevelSelect" to="." method="_on_LevelSelect_pressed"]
