[gd_resource type="Theme" load_steps=3 format=2]

[ext_resource path="res://Theme-and-Reference/Fonts/8-BIT WONDER.TTF" type="DynamicFontData" id=1]

[sub_resource type="DynamicFont" id=1]
size = 90
font_data = ExtResource( 1 )

[resource]
default_font = SubResource( 1 )
Button/fonts/DefaultMenuButton = null
Button/icons/DefaultMenuButton = null

