; Engine configuration file.
; It's best edited using the editor UI and not directly,
; since the parameters that go here are not all obvious.
;
; Format:
;   [section] ; section goes between []
;   param=value ; assign values to parameters

config_version=4

_global_script_classes=[  ]
_global_script_class_icons={

}

[application]

config/name="MozzariaProject"
run/main_scene="res://MenuScenes/BasicTemplate.tscn"
config/icon="res://icon.png"

[display]

window/size/width=1134
window/size/height=750
window/size/resizable=false
